Removed Pin From Net: NetName=GND Pin=U1-7
Added Component: Designator=CONN2(Conn_4_1)
Added Component: Designator=CONN11(Conn_4_1)
Added Component: Designator=U3(SOIC14)
Added Component: Designator=U4(SOIC14)
Added Pin To Net: NetName=NetCONN2_1 Pin=CONN2-1
Added Pin To Net: NetName=NetCONN2_2 Pin=CONN2-2
Added Pin To Net: NetName=NetCONN2_3 Pin=CONN2-3
Added Pin To Net: NetName=NetCONN2_4 Pin=CONN2-4
Added Pin To Net: NetName=SPI_MOSI Pin=CONN11-1
Added Pin To Net: NetName=SPI_MISO Pin=CONN11-2
Added Pin To Net: NetName=SPI_CLK Pin=CONN11-3
Added Pin To Net: NetName=SPI_CS Pin=CONN11-4
Added Pin To Net: NetName=AGND Pin=U1-7
Added Pin To Net: NetName=NetC17_2 Pin=U3-1
Added Pin To Net: NetName=NetR7_1 Pin=U3-2
Added Pin To Net: NetName=GND Pin=U3-3
Added Pin To Net: NetName=VOP+ Pin=U3-4
Added Pin To Net: NetName=VOFFSETR Pin=U3-5
Added Pin To Net: NetName=NetC16_1 Pin=U3-6
Added Pin To Net: NetName=NetC16_2 Pin=U3-7
Added Pin To Net: NetName=NetC20_1 Pin=U3-8
Added Pin To Net: NetName=NetC22_1 Pin=U3-9
Added Pin To Net: NetName=VOFFSETR Pin=U3-10
Added Pin To Net: NetName=VOP- Pin=U3-11
Added Pin To Net: NetName=NetC8_2 Pin=U3-12
Added Pin To Net: NetName=NetR17_1 Pin=U3-13
Added Pin To Net: NetName=NetR17_1 Pin=U3-14
Added Pin To Net: NetName=NetC28_2 Pin=U4-1
Added Pin To Net: NetName=NetR20_1 Pin=U4-2
Added Pin To Net: NetName=GND Pin=U4-3
Added Pin To Net: NetName=VOP+ Pin=U4-4
Added Pin To Net: NetName=VOFFSETL Pin=U4-5
Added Pin To Net: NetName=NetC27_1 Pin=U4-6
Added Pin To Net: NetName=NetC27_2 Pin=U4-7
Added Pin To Net: NetName=NetC31_1 Pin=U4-8
Added Pin To Net: NetName=NetC32_1 Pin=U4-9
Added Pin To Net: NetName=VOFFSETL Pin=U4-10
Added Pin To Net: NetName=VOP- Pin=U4-11
Added Pin To Net: NetName=NetC3_2 Pin=U4-12
Added Pin To Net: NetName=NetR30_1 Pin=U4-13
Added Pin To Net: NetName=NetR30_1 Pin=U4-14
Added Member To Class: ClassName=TFT Member=Component CONN11 expa SPI
Added Member To Class: ClassName=Filtro de entrada derecha Member=Component U3 4OPAMP
Added Member To Class: ClassName=Filtro de entrada izquierda Member=Component U4 4OPAMP
Change Room Name: Old Name=Designator_2 New Name=Designator
Added Room: Name=Designator
