Added Component: Designator=C32(C_0805)
Added Pin To Net: NetName=NetC32_1 Pin=C32-1
Added Pin To Net: NetName=NetC31_1 Pin=C32-2
Added Member To Class: ClassName=Filtro de entrada izquierda Member=Component C32 12pF 50V COG 5%
Added Member To Class: ClassName=Filtros de salida Member=Component P1 Header 2
Added Member To Class: ClassName=Filtros de salida Member=Component U6 MCP41010
