Added Component: Designator=R19(R_0805)
Added Pin To Net: NetName=NetC27_1 Pin=R19-1
Added Pin To Net: NetName=NetC27_2 Pin=R19-2
Added Member To Class: ClassName=Filtro de entrada izquierda Member=Component R19 100k 5% 1/10W
