Removed Pin From Net: NetName=NetP3_20 Pin=U12-68
Removed Pin From Net: NetName=NetP3_19 Pin=U12-73
Removed Pin From Net: NetName=NetP4_8 Pin=U12-77
Removed Pin From Net: NetName=NetP4_6 Pin=U12-78
Removed Pin From Net: NetName=SPI_CS Pin=U12-79
Removed Pin From Net: NetName=NetP4_7 Pin=U12-80
Removed Pin From Net: NetName=NetP4_3 Pin=U12-81
Removed Pin From Net: NetName=NetP4_2 Pin=U12-85
Removed Pin From Net: NetName=NetP4_5 Pin=U12-86
Removed Pin From Net: NetName=NetP4_4 Pin=U12-87
Added Pin To Net: NetName=NetP4_2 Pin=U12-73
Added Pin To Net: NetName=NetP4_3 Pin=U12-74
Added Pin To Net: NetName=NetP4_4 Pin=U12-75
Added Pin To Net: NetName=SPI_CS Pin=U12-77
Added Pin To Net: NetName=NetP4_5 Pin=U12-81
Added Pin To Net: NetName=NetP4_6 Pin=U12-82
Added Pin To Net: NetName=NetP3_20 Pin=U12-85
Added Pin To Net: NetName=NetP3_19 Pin=U12-86
Added Pin To Net: NetName=NetP4_7 Pin=U12-87
Added Pin To Net: NetName=NetP4_8 Pin=U12-88
