Added Pin To Net: NetName=DGND Pin=P5-1
Added Pin To Net: NetName=DGND Pin=P5-3
Added Pin To Net: NetName=3V3_D Pin=P5-4
Added Pin To Net: NetName=NetU12_110 Pin=U12-110
Added Net: Name=NetU12_110
Added Pin To Net: NetName=NetU12_114 Pin=U12-114
Added Net: Name=NetU12_114
Added Pin To Net: NetName=NetU12_115 Pin=U12-115
Added Net: Name=NetU12_115
Added Member To Class: ClassName=TFT Member=Component P3 MHDR2X17
