Added Component: Designator=C18(C_0805)
Added Component: Designator=R5(R_0805)
Added Component: Designator=R9(POTE)
Added Pin To Net: NetName=DGND Pin=C18-2
Added Pin To Net: NetName=3V3_D Pin=R9-1
Added Pin To Net: NetName=DGND Pin=R9-3
Added Pin To Net: NetName=NetC18_1 Pin=C18-1
Added Pin To Net: NetName=NetC18_1 Pin=R5-1
Added Pin To Net: NetName=NetC18_1 Pin=U12-46
Added Net: Name=NetC18_1
Added Pin To Net: NetName=NetR5_2 Pin=R5-2
Added Pin To Net: NetName=NetR5_2 Pin=R9-2
Added Net: Name=NetR5_2
Added Member To Class: ClassName=Potes_Botones Member=Component C18 100nF 50V X7R
Added Member To Class: ClassName=Potes_Botones Member=Component R5 10k 5% 1/10W
Added Member To Class: ClassName=Potes_Botones Member=Component R9 10k
