Change Component Designator: Old Designator=C66 New Designator=C62
Change Component Designator: Old Designator=C67 New Designator=C63
Change Component Designator: Old Designator=C68 New Designator=C64
Change Component Designator: Old Designator=C69 New Designator=C65
Change Component Designator: Old Designator=C70 New Designator=C66
Change Component Designator: Old Designator=C71 New Designator=C67
Change Component Designator: Old Designator=C72 New Designator=C68
Change Component Designator: Old Designator=C73 New Designator=C69
Change Component Designator: Old Designator=C74 New Designator=C70
Change Component Designator: Old Designator=C75 New Designator=C71
Change Component Designator: Old Designator=C76 New Designator=C72
Change Component Designator: Old Designator=C77 New Designator=C73
Change Component Designator: Old Designator=C78 New Designator=C74
Change Component Designator: Old Designator=C79 New Designator=C75
Change Component Designator: Old Designator=C80 New Designator=C76
Change Component Designator: Old Designator=C81 New Designator=C77
Change Component Designator: Old Designator=C82 New Designator=C78
Change Component Designator: Old Designator=C83 New Designator=C79
Change Component Designator: Old Designator=C84 New Designator=C80
Change Component Designator: Old Designator=C85 New Designator=C81
Change Component Designator: Old Designator=C86 New Designator=C82
Change Component Designator: Old Designator=C87 New Designator=C83
Change Component Designator: Old Designator=C88 New Designator=C84
Change Component Designator: Old Designator=CN3 New Designator=CN5
Change Component Designator: Old Designator=R63 New Designator=R58
Change Component Designator: Old Designator=R64 New Designator=R59
Change Component Designator: Old Designator=R65 New Designator=R60
Change Component Designator: Old Designator=R66 New Designator=R61
Change Component Designator: Old Designator=R67 New Designator=R62
Change Component Designator: Old Designator=R68 New Designator=R63
Change Component Designator: Old Designator=R69 New Designator=R64
Change Component Designator: Old Designator=R70 New Designator=R65
Change Component Designator: Old Designator=R71 New Designator=R66
Change Component Designator: Old Designator=SW6 New Designator=SW5
Change Component Designator: Old Designator=U11 New Designator=U12
